{
    "links" : [
	{"source": "Tracking", "target": "Amazon", "type": "licensing"},
	{"source": "Tracking", "target": "HTC", "type": "licensing"},
	{"source": "Samsung", "target": "Input", "type": "suit"},
	{"source": "Motorola", "target": "Input", "type": "suit"},
	{"source": "Nokia", "target": "Input", "type": "resolved"},
	{"source": "HTC", "target": "Input", "type": "suit"},
	{"source": "Interaction", "target": "Input", "type": "suit"},
	{"source": "Tracking", "target": "Barnes & Noble", "type": "suit"},
	{"source": "Tracking", "target": "Foxconn", "type": "suit"},
	{"source": "Oracle", "target": "Google", "type": "suit"},
	{"source": "Input", "target": "HTC", "type": "suit"},
	{"source": "Tracking", "target": "Inventec", "type": "suit"},
	{"source": "Samsung", "target": "Interaction", "type": "resolved"},
	{"source": "LG", "target": "Interaction", "type": "resolved"},
	{"source": "RIM", "target": "Interaction", "type": "suit"},
	{"source": "Sony", "target": "LG", "type": "suit"},
	{"source": "Interaction", "target": "LG", "type": "resolved"},
	{"source": "Input", "target": "Nokia", "type": "resolved"},
	{"source": "Qualcomm", "target": "Nokia", "type": "resolved"},
	{"source": "Input", "target": "Motorola", "type": "suit"},
	{"source": "Tracking", "target": "Motorola", "type": "suit"},
	{"source": "Motorola", "target": "Tracking", "type": "suit"},
	{"source": "Huawei", "target": "ZTE", "type": "suit"},
	{"source": "Ericsson", "target": "ZTE", "type": "suit"},
	{"source": "Interaction", "target": "Samsung", "type": "resolved"},
	{"source": "Input", "target": "Samsung", "type": "suit"},
	{"source": "Interaction", "target": "RIM", "type": "suit"},
	{"source": "Nokia", "target": "Qualcomm", "type": "suit"}
  ],
    "nodes":[
	{"name": "mazon", "type": "licensing"},
	{"name": "Tracking", "target": "HTC", "type": "licensing"},
	{"name": "Samsung", "target": "Input", "type": "suit"},
	{"name": "Motorola", "target": "Input", "type": "suit"},
	{"name": "Nokia", "target": "Input", "type": "resolved"},
	{"name": "HTC", "target": "Input", "type": "suit"},
	{"name": "Interaction", "target": "Input", "type": "suit"},
	{"name": "Barnes & Noble", "type": "suit"},
	{"name": "Foxconn", "type": "suit"},
	{"name": "Oracle", "target": "Google", "type": "suit"},
	{"name": "Input", "target": "HTC", "type": "suit"},
	{"name": "Inventec", "type": "suit"},
	{"name": "Samsung", "target": "Interaction", "type": "resolved"},
	{"name": "LG", "target": "Interaction", "type": "resolved"},
	{"name": "RIM", "target": "Interaction", "type": "suit"},
	{"name": "Sony", "target": "LG", "type": "suit"},
	{"name": "Interaction", "target": "LG", "type": "resolved"},
	{"name": "Input", "target": "Nokia", "type": "resolved"},
	{"name": "Qualcomm", "target": "Nokia", "type": "resolved"},
	{"name": "Input", "target": "Motorola", "type": "suit"},
	{"name": "Tracking", "target": "Motorola", "type": "suit"},
	{"name": "Motorola", "target": "Tracking", "type": "suit"},
	{"name": "Huawei", "target": "ZTE", "type": "suit"},
	{"name": "Ericsson", "target": "ZTE", "type": "suit"},
	{"name": "Interaction", "target": "Samsung", "type": "resolved"},
	{"name": "Input", "target": "Samsung", "type": "suit"},
	{"name": "Interaction", "target": "RIM", "type": "suit"},
	{"name": "Nokia", "target": "Qualcomm", "type": "suit"}
    ]
}
